<svg width="20" height="20" viewBox="0 0 20 20" fill="none" xmlns="http://www.w3.org/2000/svg">
<path d="M13.7028 19.6094H6.61656C5.65596 19.6094 4.73456 19.2284 4.05442 18.55C3.37428 17.8717 2.99093 16.9513 2.98843 15.9907V4.77084C2.98843 4.52621 3.08561 4.2916 3.25859 4.11862C3.43157 3.94564 3.66618 3.84846 3.91081 3.84846C4.15545 3.84846 4.39006 3.94564 4.56304 4.11862C4.73602 4.2916 4.8332 4.52621 4.8332 4.77084V15.9907C4.8357 16.4618 5.02477 16.9127 5.35901 17.2448C5.69325 17.5768 6.14544 17.7629 6.61656 17.7622H13.7028C14.1739 17.7629 14.6261 17.5768 14.9603 17.2448C15.2946 16.9127 15.4836 16.4618 15.4861 15.9907V4.77084C15.4861 4.52621 15.5833 4.2916 15.7563 4.11862C15.9293 3.94564 16.1639 3.84846 16.4085 3.84846C16.6532 3.84846 16.8878 3.94564 17.0607 4.11862C17.2337 4.2916 17.3309 4.52621 17.3309 4.77084V15.9907C17.3278 16.9511 16.9442 17.8711 16.2642 18.5494C15.5842 19.2276 14.6632 19.6087 13.7028 19.6094ZM19.0422 5.61056H1.27593C1.15194 5.615 1.02833 5.59441 0.91248 5.55002C0.796628 5.50563 0.690905 5.43836 0.601624 5.35222C0.512343 5.26607 0.441333 5.16282 0.392832 5.04863C0.344332 4.93444 0.319336 4.81165 0.319336 4.68758C0.319336 4.56352 0.344332 4.44072 0.392832 4.32653C0.441333 4.21234 0.512343 4.10909 0.601624 4.02295C0.690905 3.9368 0.796628 3.86953 0.91248 3.82514C1.02833 3.78076 1.15194 3.76017 1.27593 3.7646H19.0434C19.1674 3.76017 19.291 3.78076 19.4069 3.82514C19.5227 3.86953 19.6284 3.9368 19.7177 4.02295C19.807 4.10909 19.878 4.21234 19.9265 4.32653C19.975 4.44072 20 4.56352 20 4.68758C20 4.81165 19.975 4.93444 19.9265 5.04863C19.878 5.16282 19.807 5.26607 19.7177 5.35222C19.6284 5.43836 19.5227 5.50563 19.4069 5.55002C19.291 5.59441 19.1674 5.615 19.0434 5.61056H19.0422ZM8.04798 15.8549C7.92675 15.8549 7.80671 15.831 7.69472 15.7845C7.58274 15.7381 7.481 15.6701 7.39533 15.5843C7.30967 15.4985 7.24175 15.3967 7.19546 15.2846C7.14918 15.1726 7.12543 15.0525 7.12559 14.9313V8.52181C7.12559 8.27718 7.22277 8.04256 7.39575 7.86958C7.56873 7.6966 7.80335 7.59942 8.04798 7.59942C8.29261 7.59942 8.52722 7.6966 8.7002 7.86958C8.87319 8.04256 8.97037 8.27718 8.97037 8.52181V14.9313C8.97052 15.0525 8.94678 15.1726 8.90049 15.2846C8.85421 15.3967 8.78629 15.4985 8.70062 15.5843C8.61496 15.6701 8.51322 15.7381 8.40123 15.7845C8.28925 15.831 8.16921 15.8549 8.04798 15.8549ZM12.269 15.8549C12.1478 15.8549 12.0277 15.831 11.9157 15.7845C11.8038 15.7381 11.702 15.6701 11.6164 15.5843C11.5307 15.4985 11.4628 15.3967 11.4165 15.2846C11.3702 15.1726 11.3465 15.0525 11.3466 14.9313V8.52181C11.3466 8.27718 11.4438 8.04256 11.6168 7.86958C11.7898 7.6966 12.0244 7.59942 12.269 7.59942C12.5136 7.59942 12.7482 7.6966 12.9212 7.86958C13.0942 8.04256 13.1914 8.27718 13.1914 8.52181V14.9313C13.1915 15.0525 13.1678 15.1726 13.1215 15.2846C13.0752 15.3967 13.0073 15.4985 12.9216 15.5843C12.836 15.6701 12.7342 15.7381 12.6223 15.7845C12.5103 15.831 12.3902 15.8549 12.269 15.8549ZM15.3692 4.78029C15.1869 4.78074 15.0086 4.72697 14.857 4.62581C14.7054 4.52466 14.5873 4.38069 14.5177 4.21221L13.9508 2.85403C13.8806 2.68499 13.7617 2.54069 13.6092 2.43951C13.4567 2.33833 13.2775 2.28487 13.0945 2.28595H7.2248C7.04189 2.28534 6.86292 2.33899 6.71051 2.44011C6.55809 2.54123 6.43909 2.68527 6.36855 2.85403L5.79929 4.21221C5.70304 4.43468 5.52309 4.61032 5.29836 4.70114C5.07363 4.79197 4.82218 4.79069 4.59839 4.69757C4.3746 4.60445 4.19645 4.42699 4.10248 4.20355C4.00851 3.98012 4.00627 3.72867 4.09624 3.50359L4.66431 2.14422C4.87439 1.63912 5.22959 1.20769 5.68496 0.904534C6.14032 0.601377 6.67539 0.440121 7.22243 0.441172H13.0922C13.6392 0.439711 14.1743 0.600668 14.6297 0.903644C15.0851 1.20662 15.4403 1.63798 15.6503 2.14304L16.2184 3.50241C16.2653 3.6143 16.2897 3.73433 16.2901 3.85566C16.2906 3.97698 16.2671 4.09719 16.221 4.20942C16.1749 4.32165 16.1072 4.42369 16.0216 4.50969C15.936 4.5957 15.8343 4.66397 15.7223 4.71061C15.6105 4.75729 15.4904 4.78098 15.3692 4.78029Z" fill="#2B2B2B"/>
</svg>
