<svg width="175" height="24" viewBox="0 0 175 24" fill="none" xmlns="http://www.w3.org/2000/svg">
<mask id="mask0" mask-type="alpha" maskUnits="userSpaceOnUse" x="150" y="0" width="25" height="20">
<rect x="150" width="24.3478" height="20" fill="#C4C4C4"/>
</mask>
<g mask="url(#mask0)">
<path d="M149.66 8.07229L145.906 8.0461C145.804 7.76672 145.754 7.29527 145.754 6.63175C145.754 5.02532 146.303 3.66335 147.402 2.54584C148.518 1.42832 150.023 0.869568 151.917 0.869568C153.76 0.869568 155.24 1.41086 156.356 2.49345C157.472 3.55858 158.03 4.8769 158.03 6.4484C158.03 8.64851 156.948 10.4121 154.783 11.7391L151.664 13.6511C151.106 14.0178 150.733 14.402 150.547 14.8036H158.157V18.2609H145.652C145.652 16.5846 145.94 15.1353 146.515 13.913C147.106 12.6733 148.112 11.6256 149.533 10.77L152.222 9.14615C152.881 8.74455 153.346 8.35167 153.617 7.96753C153.887 7.56592 154.022 7.08574 154.022 6.52698C154.022 5.95076 153.828 5.47058 153.439 5.08644C153.067 4.70229 152.526 4.51022 151.816 4.51022C151.072 4.51022 150.497 4.74594 150.091 5.21739C149.702 5.68885 149.508 6.29125 149.508 7.02462C149.508 7.39131 149.558 7.74053 149.66 8.07229Z" fill="#FFB838"/>
<path d="M159.223 14.725V10.5343L166.072 1.26244H170.84V11.2677H173.478V14.725H170.84V18.2609H166.833V14.725H159.223ZM166.833 11.2677V5.66265L162.698 11.2677H166.833Z" fill="#FFB838"/>
</g>
<path d="M5.97592 3.59199V7.07199H8.30392V10.264H5.97592V14.728C5.97592 15.56 6.41592 15.976 7.29592 15.976C7.58392 15.976 7.90392 15.936 8.25592 15.856V18.88C7.80792 19.104 7.17592 19.216 6.35992 19.216C5.12792 19.216 4.15192 18.872 3.43192 18.184C2.72792 17.496 2.37592 16.56 2.37592 15.376V10.264H0.263916V7.07199H0.863916C1.47192 7.07199 1.92792 6.89599 2.23192 6.54399C2.55192 6.17599 2.71192 5.70399 2.71192 5.12799V3.59199H5.97592Z" fill="#2B2B2B"/>
<path d="M10.1429 15.712C10.1429 14.704 10.4709 13.896 11.1269 13.288C11.7829 12.664 12.6309 12.272 13.6709 12.112L16.4789 11.68C17.0549 11.6 17.3429 11.328 17.3429 10.864C17.3429 10.496 17.1829 10.192 16.8629 9.95199C16.5589 9.69599 16.1349 9.56799 15.5909 9.56799C14.9829 9.56799 14.4949 9.74399 14.1269 10.096C13.7749 10.432 13.5829 10.84 13.5509 11.32L10.3829 10.672C10.4629 9.67999 10.9509 8.77599 11.8469 7.95999C12.7589 7.12799 14.0149 6.71199 15.6149 6.71199C17.4229 6.71199 18.7509 7.14399 19.5989 8.00799C20.4629 8.87199 20.8949 9.97599 20.8949 11.32V17.152C20.8949 17.904 20.9429 18.52 21.0389 19H17.7509C17.6709 18.68 17.6309 18.232 17.6309 17.656C16.9429 18.776 15.8229 19.336 14.2709 19.336C13.0069 19.336 11.9989 18.984 11.2469 18.28C10.5109 17.56 10.1429 16.704 10.1429 15.712ZM15.1589 16.696C15.7829 16.696 16.3029 16.512 16.7189 16.144C17.1349 15.776 17.3429 15.168 17.3429 14.32V13.792L15.0869 14.152C14.1909 14.296 13.7429 14.736 13.7429 15.472C13.7429 15.808 13.8549 16.096 14.0789 16.336C14.3189 16.576 14.6789 16.696 15.1589 16.696Z" fill="#2B2B2B"/>
<path d="M22.9342 19.672L26.1502 18.76C26.2782 19.352 26.5662 19.832 27.0142 20.2C27.4782 20.568 28.0462 20.752 28.7182 20.752C30.6862 20.752 31.6702 19.736 31.6702 17.704V17.152C31.0782 18.048 30.0142 18.496 28.4782 18.496C26.8942 18.496 25.5742 17.944 24.5182 16.84C23.4622 15.736 22.9342 14.352 22.9342 12.688C22.9342 11.088 23.4542 9.71999 24.4942 8.58399C25.5502 7.43199 26.8782 6.85599 28.4782 6.85599C29.3582 6.85599 30.0782 7.00799 30.6382 7.31199C31.1982 7.61599 31.5822 7.95999 31.7902 8.34399V7.07199H35.2702V17.512C35.2702 19.368 34.7342 20.896 33.6622 22.096C32.5902 23.312 30.9982 23.92 28.8862 23.92C27.2542 23.92 25.8942 23.496 24.8062 22.648C23.7342 21.816 23.1102 20.824 22.9342 19.672ZM27.3022 14.608C27.7822 15.088 28.3982 15.328 29.1502 15.328C29.9022 15.328 30.5102 15.088 30.9742 14.608C31.4542 14.128 31.6942 13.488 31.6942 12.688C31.6942 11.904 31.4462 11.272 30.9502 10.792C30.4542 10.296 29.8542 10.048 29.1502 10.048C28.4462 10.048 27.8382 10.296 27.3262 10.792C26.8302 11.272 26.5822 11.904 26.5822 12.688C26.5822 13.488 26.8222 14.128 27.3022 14.608Z" fill="#2B2B2B"/>
<path d="M45.8191 19C45.7551 18.712 45.7231 18.312 45.7231 17.8C45.4351 18.28 44.9951 18.648 44.4031 18.904C43.8111 19.144 43.1871 19.264 42.5311 19.264C41.1231 19.264 40.0111 18.824 39.1951 17.944C38.3951 17.048 37.9951 15.936 37.9951 14.608V7.07199H41.6431V13.84C41.6431 14.448 41.8031 14.944 42.1231 15.328C42.4591 15.712 42.9391 15.904 43.5631 15.904C44.1711 15.904 44.6511 15.72 45.0031 15.352C45.3711 14.968 45.5551 14.472 45.5551 13.864V7.07199H49.2031V16.864C49.2031 17.648 49.2431 18.36 49.3231 19H45.8191Z" fill="#2B2B2B"/>
<path d="M55.94 12.16V19H52.292V7.07199H55.82V8.43999C56.124 7.91199 56.588 7.50399 57.212 7.21599C57.852 6.91199 58.5 6.75999 59.156 6.75999C60.58 6.75999 61.66 7.20799 62.396 8.10399C63.132 8.98399 63.5 10.12 63.5 11.512V19H59.852V12.136C59.852 11.512 59.684 11.016 59.348 10.648C59.028 10.264 58.548 10.072 57.908 10.072C57.316 10.072 56.836 10.272 56.468 10.672C56.116 11.056 55.94 11.552 55.94 12.16Z" fill="#2B2B2B"/>
<path d="M65.6054 19.672L68.8214 18.76C68.9494 19.352 69.2374 19.832 69.6854 20.2C70.1494 20.568 70.7174 20.752 71.3894 20.752C73.3574 20.752 74.3414 19.736 74.3414 17.704V17.152C73.7494 18.048 72.6854 18.496 71.1494 18.496C69.5654 18.496 68.2454 17.944 67.1894 16.84C66.1334 15.736 65.6054 14.352 65.6054 12.688C65.6054 11.088 66.1254 9.71999 67.1654 8.58399C68.2214 7.43199 69.5494 6.85599 71.1494 6.85599C72.0294 6.85599 72.7494 7.00799 73.3094 7.31199C73.8694 7.61599 74.2534 7.95999 74.4614 8.34399V7.07199H77.9414V17.512C77.9414 19.368 77.4054 20.896 76.3334 22.096C75.2614 23.312 73.6694 23.92 71.5574 23.92C69.9254 23.92 68.5654 23.496 67.4774 22.648C66.4054 21.816 65.7814 20.824 65.6054 19.672ZM69.9734 14.608C70.4534 15.088 71.0694 15.328 71.8214 15.328C72.5734 15.328 73.1814 15.088 73.6454 14.608C74.1254 14.128 74.3654 13.488 74.3654 12.688C74.3654 11.904 74.1174 11.272 73.6214 10.792C73.1254 10.296 72.5254 10.048 71.8214 10.048C71.1174 10.048 70.5094 10.296 69.9974 10.792C69.5014 11.272 69.2534 11.904 69.2534 12.688C69.2534 13.488 69.4934 14.128 69.9734 14.608Z" fill="#2B2B2B"/>
<path d="M79.9195 15.616L83.0155 15.064C83.0475 15.512 83.2155 15.896 83.5195 16.216C83.8395 16.52 84.2955 16.672 84.8875 16.672C85.3355 16.672 85.6795 16.576 85.9195 16.384C86.1595 16.176 86.2795 15.928 86.2795 15.64C86.2795 15.16 85.8875 14.832 85.1035 14.656L83.7355 14.344C82.5195 14.088 81.6235 13.64 81.0475 13C80.4715 12.344 80.1835 11.568 80.1835 10.672C80.1835 9.56799 80.6155 8.63199 81.4795 7.86399C82.3595 7.09599 83.4555 6.71199 84.7675 6.71199C86.3195 6.71199 87.4795 7.08799 88.2475 7.83999C89.0315 8.57599 89.4635 9.38399 89.5435 10.264L86.5195 10.816C86.4715 10.384 86.3035 10.032 86.0155 9.75999C85.7435 9.48799 85.3435 9.35199 84.8155 9.35199C84.4635 9.35199 84.1595 9.44799 83.9035 9.63999C83.6475 9.83199 83.5195 10.08 83.5195 10.384C83.5195 10.864 83.8315 11.16 84.4555 11.272L86.0395 11.584C87.2395 11.824 88.1515 12.28 88.7755 12.952C89.3995 13.624 89.7115 14.416 89.7115 15.328C89.7115 16.432 89.2955 17.384 88.4635 18.184C87.6315 18.968 86.4635 19.36 84.9595 19.36C84.0795 19.36 83.2955 19.232 82.6075 18.976C81.9355 18.72 81.4155 18.392 81.0475 17.992C80.6955 17.576 80.4235 17.168 80.2315 16.768C80.0555 16.368 79.9515 15.984 79.9195 15.616Z" fill="#2B2B2B"/>
<path d="M95.6112 11.992V19H91.9632V1.62399H95.6112V7.83999C96.3312 7.11999 97.3472 6.75999 98.6592 6.75999C100.147 6.75999 101.267 7.20799 102.019 8.10399C102.787 8.98399 103.171 10.12 103.171 11.512V19H99.5232V12.136C99.5232 11.512 99.3552 11.016 99.0192 10.648C98.6992 10.264 98.2192 10.072 97.5792 10.072C97.0192 10.072 96.5552 10.256 96.1872 10.624C95.8352 10.976 95.6432 11.432 95.6112 11.992Z" fill="#2B2B2B"/>
<path d="M111.589 16C112.341 16 112.973 15.744 113.485 15.232C114.013 14.72 114.277 13.984 114.277 13.024C114.277 12.064 114.013 11.336 113.485 10.84C112.973 10.328 112.341 10.072 111.589 10.072C110.853 10.072 110.221 10.328 109.693 10.84C109.165 11.352 108.901 12.08 108.901 13.024C108.901 13.968 109.165 14.704 109.693 15.232C110.221 15.744 110.853 16 111.589 16ZM111.589 6.71199C113.397 6.71199 114.901 7.30399 116.101 8.48799C117.317 9.67199 117.925 11.184 117.925 13.024C117.925 14.864 117.317 16.384 116.101 17.584C114.901 18.768 113.397 19.36 111.589 19.36C109.797 19.36 108.293 18.76 107.077 17.56C105.861 16.36 105.253 14.848 105.253 13.024C105.253 11.2 105.861 9.69599 107.077 8.51199C108.293 7.31199 109.797 6.71199 111.589 6.71199Z" fill="#2B2B2B"/>
<path d="M124.497 3.59199V7.07199H126.825V10.264H124.497V14.728C124.497 15.56 124.937 15.976 125.817 15.976C126.105 15.976 126.425 15.936 126.777 15.856V18.88C126.329 19.104 125.697 19.216 124.881 19.216C123.649 19.216 122.673 18.872 121.953 18.184C121.249 17.496 120.897 16.56 120.897 15.376V10.264H118.785V7.07199H119.385C119.993 7.07199 120.449 6.89599 120.753 6.54399C121.073 6.17599 121.233 5.70399 121.233 5.12799V3.59199H124.497Z" fill="#2B2B2B"/>
<path d="M131.91 11.608H136.686C136.654 11.064 136.438 10.592 136.038 10.192C135.654 9.79199 135.07 9.59199 134.286 9.59199C133.582 9.59199 133.022 9.79999 132.606 10.216C132.19 10.632 131.958 11.096 131.91 11.608ZM136.95 14.704L139.998 15.568C139.694 16.672 139.062 17.584 138.102 18.304C137.142 19.008 135.942 19.36 134.502 19.36C132.774 19.36 131.302 18.784 130.086 17.632C128.886 16.48 128.286 14.936 128.286 13C128.286 11.144 128.87 9.63199 130.038 8.46399C131.222 7.29599 132.622 6.71199 134.238 6.71199C136.094 6.71199 137.55 7.25599 138.606 8.34399C139.678 9.41599 140.214 10.912 140.214 12.832C140.214 13.44 140.19 13.816 140.142 13.96H131.838C131.87 14.616 132.15 15.168 132.678 15.616C133.206 16.048 133.83 16.264 134.55 16.264C135.782 16.264 136.582 15.744 136.95 14.704Z" fill="#2B2B2B"/>
<path d="M146.084 19H142.436V1.62399H146.084V19Z" fill="#2B2B2B"/>
</svg>
